﻿1 Баклакова Елена Андреевна 381303 543445434454
2 Благун Юлия Юрьевна 381603 233323332323
3 Вехов Константин Викторович 381608 5445555544
4 Витальев Максим 381002 554554545355
5 Гостяев Тимур Алексеевич 381303 5454445455554
6 Дмитриев Никита Александрович 381303 55554554555
7 Дробков Алексей Витальевич 381603 3443555433344
8 Ивахненко Лидия Николаевна 381608 5455534445545
9 Камеронов Виталий Сергеевич 381002 45543445545
10 Кириллов Дмитрий Владимирович 381002 4554455445
11 Нечаев Владимир Сергеевич 381608 4545544455555
12 Чиданов Александр Олегович 381303 334435443323
13 Чуб Ольга Николаевна 381603 4544344544345
14 Бабкина Евгения Николаевна 381303 54445434554
15 Бодрызлова Полина Андреевна 381303 54544455445
16 Глушкова Александра Вячеславовна 381608 455545544
17 Гречихина Екатерина Вячеславовна 381303 55545545555
18 Кононова Елизавета Николаевна 381002 55555555555
19 Кудрявцева Наталья Юрьевна 381303 4545544544
20 Лубских Вера Андреевна 381303 4545445355
21 Пенкина Надежда Ивановна 381501 434444354434
22 Полякова Ольга Павловна 381501 34344544355
23 Романов Никита Валерьевич 381603 345544345
24 Серебренников Дмитрий Евгеньевич 381303 3455443544
25 Таратынов Алексей Юрьевич 381603 3455443454543
26 Чупрасова Анна Валерьевна 381603 4544334554454
27 Ярощук Арсений Константинович 381608 54454454553555
28 Адегова Ольга Игоревна 381501 5545554445545554
29 Богряцова Софья Александровна 381303 5544554545
30 Василенко Дарья Владимировна 381603 554555455
31 Вахрушев Павел Олегович 381303 5545544554
32 Герасимова Ольга Владимировна 381608 545544454455
33 Зимина Анастасия Дмитриевна 381303 4344324434
34 Иванова Ольга Николаевна 381608 54554434545
35 Кандакова Дарья Эдуардовна 381501 54554434554
36 Ковалев Александр Александрович 381303 54554443545
37 Колмакова Дарья Александровна 381603 545444555
38 Колосова Нина Романовна 381608 55434543545
39 Петрова Алина Сергеевна 381303 554445555445
40 Соловьева Евгения Максимовна 381603 55455444555
41 Тыцкая Екатерина Игоревна 381603 344535554
42 Якуб Евгения Андреевна 381501 454434543455
43 Артеменко Михаил Георгиевич 381303 5443455555445
44 Богачев Владислав Александрович 381501 54545445545435
45 Жамсаранова Светлана Бадмаевна 381608 5544544544455
46 Зеленина Варвара Витальевна 381603 4455455554454
47 Кайгородцева Софья Евгеньевна 381303 45454555444554
48 Костылев Антон Дмитриевич 381501 544544455554544
49 Котляренко Екатерина Александровна 381002 54455445445
50 Ничипорчук Маргарита Игоревна 381303 5455455455544554
51 Пенькова Мария Владимировна 381002 544544455444555
52 Салихов Беслан Аптиевич 381603 4455554454555
53 Синегубова Анастасия Игоревна 381002 55445544354
54 Халитова Эвелина Дамировна 381603 5454456555
55 Храмчихина Анастасия Андреевна 381303 55655565565